
-- TC053 : OCTO863 : Parens in EXTRACT fields do not affect generated M code parens
DROP TABLE IF EXISTS TEST;
CREATE TABLE TEST(
 ID INTEGER PRIMARY KEY,
 FIELD1 INTEGER EXTRACT "$$pgTableIsVisible^%ydboctopgfunctions(""("")"
);
SELECT FIELD1 FROM TEST;
DROP TABLE
CREATE TABLE
FIELD1
(0 rows)
