
-- TCF022 : OCTO345 : Catalog queries on pg_proc work for full table name and alias

SELECT proname,pronargs,prorettype,proargtypes FROM pg_catalog.pg_proc;
SELECT proname,pronargs,prorettype,proargtypes FROM pg_proc;
PRONAME|PRONARGS|PRORETTYPE|PROARGTYPES
ABS|1|1700|1700
ABS|1|23|23
CONCAT|2|1043|1043 1043
CONCAT|3|1043|1043 1043 1043
ROUND|2|1700|1700 23
ROUND|2|1700|23 23
TRUNC|2|1700|1700 23
TRUNC|2|1700|23 1700
TRUNC|2|1700|1700 1700
TRUNC|2|1700|23 23
TRUNCATE|2|1700|1700 23
TRUNCATE|2|1700|23 1700
TRUNCATE|2|1700|1700 1700
TRUNCATE|2|1700|23 23
NOW|0|1043|
DAY|1|1043|1043
LOCALTIME|0|1043|
LOCALTIMESTAMP|0|1043|
CURRENT_TIMESTAMP|0|1043|
CURRENT_TIME|0|1043|
DATE_FORMAT|2|1043|1043 1043
DAYOFMONTH|1|1043|1043
LPAD|2|1043|1043 23
LPAD|3|1043|1043 23 1043
REPLACE|3|1043|1043 1043 1043
ROW_NUMBER|0|23|
SET_CONFIG|3|1043|1043 1043 16
VERSION|0|1043|
PG_CATALOG.PG_TABLE_IS_VISIBLE|1|16|23
PG_CATALOG.PG_GET_USERBYID|1|1043|23
CURRENT_SCHEMA|0|1043|
CURRENT_DATABASE|0|1043|
CURRENT_CATALOG|0|1043|
CURRENT_ROLE|0|1043|
CURRENT_USER|0|1043|
SESSION_USER|0|1043|
USER|0|1043|
PG_CATALOG.CURRENT_SCHEMAS|1|1043|16
PG_CATALOG.OBJ_DESCRIPTION|2|1043|23 1043
PG_CATALOG.PG_BACKEND_PID|0|1043|
PG_CATALOG.PG_GET_EXPR|2|1043|1043 23
PG_ENCODING_TO_CHAR|1|1043|23
PG_IS_IN_RECOVERY|0|16|
PG_IS_XLOG_REPLAY_PAUSED|0|16|
HAS_DATABASE_PRIVILEGE|2|16|23 1043
HAS_DATABASE_PRIVILEGE|3|16|1043 1043 1043
PG_TABLE_IS_VISIBLE|1|16|23
PG_GET_USERBYID|1|1043|23
CURRENT_SCHEMAS|1|1043|16
OBJ_DESCRIPTION|2|1043|23 1043
PG_BACKEND_PID|0|1043|
PG_GET_EXPR|2|1043|1043 23
(52 rows)
PRONAME|PRONARGS|PRORETTYPE|PROARGTYPES
ABS|1|1700|1700
ABS|1|23|23
CONCAT|2|1043|1043 1043
CONCAT|3|1043|1043 1043 1043
ROUND|2|1700|1700 23
ROUND|2|1700|23 23
TRUNC|2|1700|1700 23
TRUNC|2|1700|23 1700
TRUNC|2|1700|1700 1700
TRUNC|2|1700|23 23
TRUNCATE|2|1700|1700 23
TRUNCATE|2|1700|23 1700
TRUNCATE|2|1700|1700 1700
TRUNCATE|2|1700|23 23
NOW|0|1043|
DAY|1|1043|1043
LOCALTIME|0|1043|
LOCALTIMESTAMP|0|1043|
CURRENT_TIMESTAMP|0|1043|
CURRENT_TIME|0|1043|
DATE_FORMAT|2|1043|1043 1043
DAYOFMONTH|1|1043|1043
LPAD|2|1043|1043 23
LPAD|3|1043|1043 23 1043
REPLACE|3|1043|1043 1043 1043
ROW_NUMBER|0|23|
SET_CONFIG|3|1043|1043 1043 16
VERSION|0|1043|
PG_CATALOG.PG_TABLE_IS_VISIBLE|1|16|23
PG_CATALOG.PG_GET_USERBYID|1|1043|23
CURRENT_SCHEMA|0|1043|
CURRENT_DATABASE|0|1043|
CURRENT_CATALOG|0|1043|
CURRENT_ROLE|0|1043|
CURRENT_USER|0|1043|
SESSION_USER|0|1043|
USER|0|1043|
PG_CATALOG.CURRENT_SCHEMAS|1|1043|16
PG_CATALOG.OBJ_DESCRIPTION|2|1043|23 1043
PG_CATALOG.PG_BACKEND_PID|0|1043|
PG_CATALOG.PG_GET_EXPR|2|1043|1043 23
PG_ENCODING_TO_CHAR|1|1043|23
PG_IS_IN_RECOVERY|0|16|
PG_IS_XLOG_REPLAY_PAUSED|0|16|
HAS_DATABASE_PRIVILEGE|2|16|23 1043
HAS_DATABASE_PRIVILEGE|3|16|1043 1043 1043
PG_TABLE_IS_VISIBLE|1|16|23
PG_GET_USERBYID|1|1043|23
CURRENT_SCHEMAS|1|1043|16
OBJ_DESCRIPTION|2|1043|23 1043
PG_BACKEND_PID|0|1043|
PG_GET_EXPR|2|1043|1043 23
(52 rows)
