
-- TCF005 : OCTO345 : M extrinsic functions created by CREATE FUNCTION are case sensitive

-- Map function to existing extrinsic function (all caps)
CREATE FUNCTION MODULO(INTEGER, INTEGER) RETURNS INTEGER AS $$^MODULO;
SELECT id, MODULO(id,2) FROM names;
DROP FUNCTION MODULO(INTEGER, INTEGER);

-- Map function to non-existing extrinsic function (lowercase)
CREATE FUNCTION MODULO(INTEGER, INTEGER) RETURNS INTEGER AS $$^modulo;
SELECT id, MODULO(id,2) FROM names;
DROP FUNCTION MODULO(INTEGER, INTEGER);

-- Map function to non-existing extrinsic function (mixed case)
CREATE FUNCTION MODULO(INTEGER, INTEGER) RETURNS INTEGER AS $$^mOdUlO;
SELECT id, MODULO(id,2) FROM names;
DROP FUNCTION MODULO(INTEGER, INTEGER);

CREATE FUNCTION
ID|MODULO
0|0
1|1
2|0
3|1
4|0
5|1
(6 rows)
DROP FUNCTION
CREATE FUNCTION
[ERROR]: ERR_YOTTADB: YottaDB error: 150373978,octoPlan1+14^%ydboctoP*,%YDB-E-ZLINKFILE, Error while zlinking "modulo",%YDB-E-FILENOTFND, File modulo.m not found,%YDB-E-FILENOTFND, File modulo.o not found
DROP FUNCTION
CREATE FUNCTION
[ERROR]: ERR_YOTTADB: YottaDB error: 150373978,octoPlan1+14^%ydboctoP*,%YDB-E-ZLINKFILE, Error while zlinking "mOdUlO",%YDB-E-FILENOTFND, File mOdUlO.m not found,%YDB-E-FILENOTFND, File mOdUlO.o not found
DROP FUNCTION
