# -------------------------------------------------------------------------------------------
# Test cancel request aborts long running query
# -------------------------------------------------------------------------------------------
# Randomly enable env var ydb_zinterrupt to test that it overrides the default zinterrupt if set
ydb=# select n1.id,n2.id from names n1, names n2 WHERE HANGTIME('Zero',5) = n1.firstname;
^CCancel request sent
ERROR:  canceling statement due to user request
ydb=# # OCTO645 : Test that a valid short query works fine after a canceled query (it used to be incorrectly treated as canceled)
select * from names;
 id | firstname | lastname 
----+-----------+----------
  0 | Zero      | Cool
  1 | Acid      | Burn
  2 | Cereal    | Killer
  3 | Lord      | Nikon
  4 | Joey      | 
  5 | Zero      | Cool
(6 rows)

ydb=# \q
# -------------------------------------------------------------------------------------------
# Verify MUPIP INTRPT (would have been done inside HANGTIME.m) of rocto produces JOBEXAM file
# Also cerify that JOBEXAM file contains the M-stack as expected
# -------------------------------------------------------------------------------------------
HANGTIME+5^HANGTIME    ($ZINTERRUPT) 
octoPlan1+11^%ydboctoPIlVYza3cnUkl07a3UkqTJ3
octoPlan1+5^%ydboctoPIlVYza3cnUkl07a3UkqTJ3
octoPlan1+3^%ydboctoPIlVYza3cnUkl07a3UkqTJ3
octoPlan0+3^%ydboctoPIlVYza3cnUkl07a3UkqTJ3
run+8^%ydboctoselect
# Verify M variable ZINTRSET got set IF ydb_zinterrupt env var (randomly) drove the zinterrupt
