
-- TCT003: coerce string to NUMERIC

select 'hello'::numeric from names limit 1;
select * from names where 'hello'::numeric = names.id

[ERROR]: ERR_INVALID_NUMERIC_SYNTAX: Invalid input syntax for type numeric: 'hello'
[ERROR]: ERR_INVALID_NUMERIC_SYNTAX: Invalid input syntax for type numeric: 'hello'
