# Load customers DDL
# Invoke TDT03.sql to print ALL columns of ORDERS table
RELNAME|ATTNAME
ORDERS|ORDER_ID
ORDERS|ORDER_DATE
ORDERS|ORDER_AMOUNT
ORDERS|CUSTOMER_ID
(4 rows)
# Now run DROP TABLE command
DROP TABLE
DROP TABLE
# Now run query again to verify number of columns of ORDERS table came down to 0.
RELNAME|ATTNAME
(0 rows)
# And a final load of customers DDL again (CREATE TABLE)
# Now run query again to verify number of columns of ORDERS table went back to its original number.
RELNAME|ATTNAME
ORDERS|ORDER_ID
ORDERS|ORDER_DATE
ORDERS|ORDER_AMOUNT
ORDERS|CUSTOMER_ID
(4 rows)
