select * from names natural join names;
select * from names as n1 natural join names as n1;
select * from names as n1 natural join names as n2 natural join names as n1;
select * from names as n1 natural join names as n2 join names as n1 on n1.id = n2.id;
select * from names as n1 inner join names as n1 on n1.id = n1.id;
select * from names as n1 left join names as n1 on n1.id = n1.id;
select * from names as n1 right join names as n1 on n1.id = n1.id;
select * from names as n1 join names as n1 on n1.id = n1.id;
select * from names as n1 cross join names as n1;
select * from names n1 inner join names n2 on n1.id = n2.id left join names n2 on n1.id = n2.id;
select * from names n1 left join names n2 on n1.id = n2.id inner join names n2 on n1.id = n2.id;
select * from names n1 right join names n2 on n1.id = n2.id left join names n2 on n1.id = n2.id;
select * from names n1 right join names n2 on n1.id = n2.id natural join names n2;
select * from names, names;
select * from names as n1, names as n1;
select * from names as n1, names as n2 inner join names n3 on n1.id = n2.id left join names n2 on n1.id = n2.id;
select * from names as n1 left join names as n1 on n1.id = n1.id left join names as n3 on n1.id = n3.id;
select * from names left join names names on n1.id = names.id;
select * from names left join nameswithages names on n1.id = names.id;
select * from ((select * from names union select * from names) union (select * from names union select * from names)) n1 left join names n1 on n1.id = n1.id;
select * from (((select * from names union select * from names) union (select * from names union select * from names)) union ((select * from names union select * from names) union (select * from names union select * from names))) n1 left join names n1 on n1.id = n1.id;


-- Test that table name is no longer usable once an alias has been assigned to it
select * from names n1 left join nameswithages names on n1.id = names.id;

[ERROR]: ERR_JOIN_ALIAS_DUPLICATE: table name 'NAMES' specified more than once
[ERROR]: ERR_JOIN_ALIAS_DUPLICATE: table name 'N1' specified more than once
[ERROR]: ERR_JOIN_ALIAS_DUPLICATE: table name 'N1' specified more than once
[ERROR]: ERR_JOIN_ALIAS_DUPLICATE: table name 'N1' specified more than once
[ERROR]: ERR_JOIN_ALIAS_DUPLICATE: table name 'N1' specified more than once
[ERROR]: ERR_JOIN_ALIAS_DUPLICATE: table name 'N1' specified more than once
[ERROR]: ERR_JOIN_ALIAS_DUPLICATE: table name 'N1' specified more than once
[ERROR]: ERR_JOIN_ALIAS_DUPLICATE: table name 'N1' specified more than once
[ERROR]: ERR_JOIN_ALIAS_DUPLICATE: table name 'N1' specified more than once
[ERROR]: ERR_JOIN_ALIAS_DUPLICATE: table name 'N2' specified more than once
[ERROR]: ERR_JOIN_ALIAS_DUPLICATE: table name 'N2' specified more than once
[ERROR]: ERR_JOIN_ALIAS_DUPLICATE: table name 'N2' specified more than once
[ERROR]: ERR_JOIN_ALIAS_DUPLICATE: table name 'N2' specified more than once
[ERROR]: ERR_JOIN_ALIAS_DUPLICATE: table name 'NAMES' specified more than once
[ERROR]: ERR_JOIN_ALIAS_DUPLICATE: table name 'N1' specified more than once
[ERROR]: ERR_JOIN_ALIAS_DUPLICATE: table name 'N2' specified more than once
[ERROR]: ERR_JOIN_ALIAS_DUPLICATE: table name 'N1' specified more than once
[ERROR]: ERR_JOIN_ALIAS_DUPLICATE: table name 'NAMES' specified more than once
[ERROR]: ERR_JOIN_ALIAS_DUPLICATE: table name 'NAMES' specified more than once
[ERROR]: ERR_JOIN_ALIAS_DUPLICATE: table name 'N1' specified more than once
[ERROR]: ERR_JOIN_ALIAS_DUPLICATE: table name 'N1' specified more than once
ID|FIRSTNAME|LASTNAME|ID|FIRSTNAME|LASTNAME|AGE|DATETIME
0|Zero|Cool|0|Zero|Cool||DATE TIME
1|Acid|Burn|1|Acid|Burn||DATE TIME
2|Cereal|Killer|2|Cereal|Killer||DATE TIME
3|Lord|Nikon|3|Lord|Nikon||DATE TIME
4|Joey||4|Joey|||DATE TIME
5|Zero|Cool|5|Zero|Cool||DATE TIME
(6 rows)
