
-- TJOC02 : OCTO291 JOIN queries with invalid ON conditions

select o1.order_id from orders o1 left join orders o2 on o3.customer_id != o3.order_id left join orders o3 on o2.customer_id = o3.customer_id;

[ERROR]: ERR_MISSING_FROM_ENTRY: Missing FROM-clause entry for table : O3
LINE 3:1: ...1 left join orders o2 on o3.customer_id != o3.order_id left join...
                                      ^^^^^^^^^^^^^^
