FIRSTNAME|LASTNAME
Zero|Cool
Acid|Burn
Cereal|Killer
Lord|Nikon
Joey|
Zero|Cool
(6 rows)
[ERROR]: ERR_UNKNOWN_COLUMN_NAME: Unknown column: NOTATHING
LINE 8:1: select notathing from names; select firstname from names limit ...
                 ^^^^^^^^^
FIRSTNAME
Zero
(1 row)
LASTNAME
Cool
(1 row)
