[ INFO] PATH:LINENUM DATE TIME: INFO_RECORDING_ENV_VARS: # Recording pertinent ydb_* env var values at process startup
LINE 1:1: qwerty
          ^^^^^^
syntax error, unexpected IDENTIFIER_ALONE
[ INFO] PATH:LINENUM DATE TIME: INFO_PARSING_DONE: Parsing done for SQL command [qwerty
uiop;]
[ INFO] PATH:LINENUM DATE TIME: INFO_RETURNING_FAILURE: Returning failure from run_query
[ INFO] PATH:LINENUM DATE TIME: INFO_PARSING_DONE: Parsing done for SQL command [select *
from names limit 1;]
[ INFO] PATH:LINENUM DATE TIME: INFO_CURSOR: Generating SQL for CURSOR_NUM
[ INFO] PATH:LINENUM DATE TIME: INFO_M_PLAN: Generating M file [$PWD/_ydboctoP*.m] (to execute SQL query)
[ INFO] PATH:LINENUM DATE TIME: INFO_ENTERING_FUNCTION: Entering print_temporary_table
ID|FIRSTNAME|LASTNAME
0|Zero|Cool
(1 row)
[ INFO] PATH:LINENUM DATE TIME: INFO_PARSING_DONE: Parsing done for SQL command []
