[ INFO] PATH:LINENUM DATE TIME: INFO_RECORDING_ENV_VARS: # Recording pertinent ydb_* env var values at process startup
[ INFO] PATH:LINENUM DATE TIME: INFO_PARSING_DONE: Parsing done for SQL command [select firstname from names limit 1;]
[ INFO] PATH:LINENUM DATE TIME: INFO_CURSOR: Generating SQL for CURSOR_NUM
[ INFO] PATH:LINENUM DATE TIME: INFO_M_PLAN: Generating M file [$PWD/_ydboctoP*.m] (to execute SQL query)
[ INFO] PATH:LINENUM DATE TIME: INFO_ENTERING_FUNCTION: Entering print_temporary_table
FIRSTNAME
Zero
(1 row)
[ INFO] PATH:LINENUM DATE TIME: INFO_PARSING_DONE: Parsing done for SQL command [select lastname from names limit 1;]
[ INFO] PATH:LINENUM DATE TIME: INFO_CURSOR: Generating SQL for CURSOR_NUM
[ INFO] PATH:LINENUM DATE TIME: INFO_M_PLAN: Generating M file [$PWD/_ydboctoP*.m] (to execute SQL query)
[ INFO] PATH:LINENUM DATE TIME: INFO_ENTERING_FUNCTION: Entering print_temporary_table
LASTNAME
Cool
(1 row)
[ INFO] PATH:LINENUM DATE TIME: INFO_PARSING_DONE: Parsing done for SQL command []
