select * from t1;
create table t1(a int, b int) global "^T1(keys(""a""),keys(""b""))";
select * from t1;
drop table t1;
select * from t1;
ERROR:  Unknown table: T1
ERROR:  LINE 1:1: select * from t1;
ERROR:                          ^^
CREATE TABLE
  a   |  b   
------+------
    1 |    2
   42 | 9001
 1337 |   42
(3 rows)

DROP TABLE
ERROR:  Unknown table: T1
ERROR:  LINE 1:1: select * from t1;
ERROR:                          ^^
