select * from t1;
create table t1(a int, b int);
select * from t1;
drop table t1;
select * from names limit 1;
ERROR:  Unknown table: T1
ERROR:  LINE 1:1: select * from t1;
ERROR:                          ^^
ERROR:  Rocto is not allowed to make schema changes without startup flag --allowschemachanges
ERROR:  Unknown table: T1
ERROR:  LINE 1:1: select * from t1;
ERROR:                          ^^
ERROR:  Rocto is not allowed to make schema changes without startup flag --allowschemachanges
 id | firstname | lastname 
----+-----------+----------
  0 | Zero      | Cool
(1 row)

