
-- All queries in this query file are invalid queries and generate an error.

-- TSS03 : OCTO192 : Using sub-query in a WHERE clause produces <Plan produced by optimizer appears incorrect> warning

-- Misc queries
SELECT * FROM names n1 WHERE n1.firstName = (SELECT n2.firstname FROM names n2 WHERE n2.firstname = n1.firstname);
SELECT * from names n1 where n1.id IN (SELECT * FROM names n2 WHERE n2.id = ((n1.id + 1) % 6));

-- Sub-query that returns 1 row, 1 column (i.e. a scalar) and type match. Use a sub-query wherever a scalar is possible
select id/(select 2 from names) from (select id from names) as n2;
select 2*(select id*id from names) from (select id from names) as n2;

-- Sub-query that returns 1 row, 1 column (i.e. a scalar) and type mismatch
SELECT * FROM names a WHERE a.firstName = (SELECT b.id FROM names b WHERE a.id = b.id);
SELECT * FROM names a WHERE a.firstName != (SELECT b.id FROM names b WHERE a.id = b.id);

-- Sub-query that returns 1 row but multiple columns
SELECT * FROM names a WHERE a.firstName = (SELECT b.firstName,b.lastname FROM names b WHERE a.id = b.id);
SELECT * FROM names a WHERE a.firstName != (SELECT b.firstName,b.lastname FROM names b WHERE a.id = b.id);

-- Sub-query that returns > 1 rows but == 1 column
SELECT * FROM names a WHERE a.firstName = (SELECT b.firstName FROM names b WHERE (a.id % 2) = (b.id % 2));
SELECT * FROM names a WHERE a.firstName != (SELECT b.firstName FROM names b WHERE (a.id % 2) = (b.id % 2));

-- Sub-query that returns > 1 rows and  > 1 columns
SELECT * FROM names a WHERE a.firstName = (SELECT b.firstName,b.lastname FROM names b WHERE (a.id % 2) = (b.id % 2));
SELECT * FROM names a WHERE a.firstName != (SELECT b.firstName,b.lastname FROM names b WHERE (a.id % 2) = (b.id % 2));

-- Sub-query that returns a NULL in == 1 row, > 1 columns
SELECT * FROM names a WHERE a.firstName = (SELECT NULL, NULL, firstname);
SELECT * FROM names a WHERE a.firstName != (SELECT NULL, NULL, firstname);

-- Sub-query that returns a NULL in  > 1 row, > 1 columns
SELECT * FROM names n1 WHERE n1.firstName = (SELECT NULL, n2.id, NULL from names n2);
SELECT * FROM names n1 WHERE n1.firstName != (SELECT NULL, n2.id, NULL from names n2);

-- Miscellaneous queries that issue error but used to assert fail due to an incorrect change to match_column_in_table.c
select id+2;

[ERROR]: ERR_SUBQUERY_MULTIPLE_ROWS: More than one row returned by a subquery used as an expression
[ERROR] PATH:LINENUM DATE TIME: ERR_SUBQUERY_ONE_COLUMN: Subquery must return only one column
LINE 5:1: ...rom names n1 where n1.id IN (SELECT * FROM names n2 WHERE n2.id ...
                                          ^^^^^^
[ERROR]: ERR_SUBQUERY_MULTIPLE_ROWS: More than one row returned by a subquery used as an expression
[ERROR]: ERR_SUBQUERY_MULTIPLE_ROWS: More than one row returned by a subquery used as an expression
[ERROR] PATH:LINENUM DATE TIME: ERR_TYPE_MISMATCH: Type mismatch: left VARCHAR, right INTEGER
LINE 10:1: ...LECT * FROM names a WHERE a.firstName = (SELECT b.id FROM names...
                                        ^^^^^^^^^^^
LINE 10:1: ...names a WHERE a.firstName = (SELECT b.id FROM names b WHERE a.id...
                                           ^^^^^^
[ERROR] PATH:LINENUM DATE TIME: ERR_TYPE_MISMATCH: Type mismatch: left VARCHAR, right INTEGER
LINE 11:1: ...LECT * FROM names a WHERE a.firstName != (SELECT b.id FROM name...
                                        ^^^^^^^^^^^
LINE 11:1: ...ames a WHERE a.firstName != (SELECT b.id FROM names b WHERE a.id...
                                           ^^^^^^
[ERROR] PATH:LINENUM DATE TIME: ERR_SUBQUERY_ONE_COLUMN: Subquery must return only one column
LINE 13:1: ...names a WHERE a.firstName = (SELECT b.firstName,b.lastname FROM ...
                                           ^^^^^^
[ERROR] PATH:LINENUM DATE TIME: ERR_SUBQUERY_ONE_COLUMN: Subquery must return only one column
LINE 14:1: ...ames a WHERE a.firstName != (SELECT b.firstName,b.lastname FROM ...
                                           ^^^^^^
[ERROR]: ERR_SUBQUERY_MULTIPLE_ROWS: More than one row returned by a subquery used as an expression
[ERROR]: ERR_SUBQUERY_MULTIPLE_ROWS: More than one row returned by a subquery used as an expression
[ERROR] PATH:LINENUM DATE TIME: ERR_SUBQUERY_ONE_COLUMN: Subquery must return only one column
LINE 19:1: ...names a WHERE a.firstName = (SELECT b.firstName,b.lastname FROM ...
                                           ^^^^^^
[ERROR] PATH:LINENUM DATE TIME: ERR_SUBQUERY_ONE_COLUMN: Subquery must return only one column
LINE 20:1: ...ames a WHERE a.firstName != (SELECT b.firstName,b.lastname FROM ...
                                           ^^^^^^
[ERROR] PATH:LINENUM DATE TIME: ERR_SUBQUERY_ONE_COLUMN: Subquery must return only one column
LINE 22:1: ...FROM names a WHERE a.firstName = (SELECT NULL, NULL, firstname);
                                                ^^^^^^
[ERROR] PATH:LINENUM DATE TIME: ERR_SUBQUERY_ONE_COLUMN: Subquery must return only one column
LINE 23:1: ...ROM names a WHERE a.firstName != (SELECT NULL, NULL, firstname);
                                                ^^^^^^
[ERROR] PATH:LINENUM DATE TIME: ERR_SUBQUERY_ONE_COLUMN: Subquery must return only one column
LINE 25:1: ...mes n1 WHERE n1.firstName = (SELECT NULL, n2.id, NULL from names...
                                           ^^^^^^
[ERROR] PATH:LINENUM DATE TIME: ERR_SUBQUERY_ONE_COLUMN: Subquery must return only one column
LINE 26:1: ...es n1 WHERE n1.firstName != (SELECT NULL, n2.id, NULL from names...
                                           ^^^^^^
[ERROR] PATH:LINENUM DATE TIME: ERR_UNKNOWN_COLUMN_NAME: Unknown column: ID
LINE 28:1: select id+2;
                  ^^
