[ERROR]: ERR_UNKNOWN_COLUMN_NAME: Unknown column: NOTATHING
LINE 1:1: select notathing as a from names; select * from names limit 1;
                 ^^^^^^^^^
ID|FIRSTNAME|LASTNAME
0|Zero|Cool
(1 row)
