# head -20 of full_output.txt follows

-- TV012 : OCTO506 : octo -vv produces garbage logical plan output for queries with lots of OR conditions

select * from names where id IN (1,2,3,4,5,6,7,8,9,10,11,12,13,14,15,16,17,18,19,20,21,22,23,24,25,26,27,28,29,30,31,32,33,34,35,36,37,38,39,40,41,42,43,44,45,46,47,48,49,50);

[ INFO] PATH:LINENUM DATE TIME: INFO_PARSING_DONE: Parsing done for SQL command [select * from names where id IN (1,2,3,4,5,6,7,8,9,10,11,12,13,14,15,16,17,18,19,20,21,22,23,24,25,26,27,28,29,30,31,32,33,34,35,36,37,38,39,40,41,42,43,44,45,46,47,48,49,50);]
[ INFO] PATH:LINENUM DATE TIME: INFO_CURSOR: Generating SQL for CURSOR_NUM
[ INFO] PATH:LINENUM DATE TIME: INFO_M_PLAN: Generating M file [$PWD/_ydboctoP*.m] (to execute SQL query)
[DEBUG] PATH:LINENUM DATE TIME: INFO_CURPLAN: LOGICAL_PLAN BEFORE optimize_logical_plan() follows 
LP_SELECT_QUERY: 
  LP_PROJECT: 
    LP_COLUMN_LIST: 
      LP_WHERE: 
        LP_COLUMN_ALIAS: NAMES(1).ID
        LP_COLUMN_LIST_ALIAS: 
        - type: INTEGER_LITERAL
        - alias: ID
      LP_WHERE: 
        LP_COLUMN_ALIAS: NAMES(1).FIRSTNAME
        LP_COLUMN_LIST_ALIAS: 
# tail -20 of full_output.txt follows
          LP_SELECT_MORE_OPTIONS: 
            LP_KEYWORDS: 
  LP_OUTPUT: 
    LP_KEY: 
    - table_name: 
    - column_name: 
    - unique_id: 3
    - method: LP_KEY_ADVANCE
    - xref_key: false
    - uses_xref_key: false

[ INFO] PATH:LINENUM DATE TIME: INFO_ENTERING_FUNCTION: Entering print_temporary_table
ID|FIRSTNAME|LASTNAME
1|Acid|Burn
2|Cereal|Killer
3|Lord|Nikon
4|Joey|
5|Zero|Cool
(5 rows)
[ INFO] PATH:LINENUM DATE TIME: INFO_PARSING_DONE: Parsing done for SQL command []
